<?xml version="1.0" encoding="UTF-8"?>
<svg width="166px" height="22px" viewBox="0 0 166 22" version="1.1" xmlns="http://www.w3.org/2000/svg" xmlns:xlink="http://www.w3.org/1999/xlink">
    <!-- Generator: Sketch 47.1 (45422) - http://www.bohemiancoding.com/sketch -->
    <title>logo</title>
    <desc>Created with Sketch.</desc>
    <defs></defs>
    <g id="Landing" stroke="none" stroke-width="1" fill="none" fill-rule="evenodd" opacity="0.879999995">
        <g id="AtomicFund-Desktop-1440px" transform="translate(-375.000000, -19.000000)">
            <g id="//Hero">
                <g id="Hero" transform="translate(375.000000, 9.000000)">
                    <g id="Nav-bar">
                        <g id="logo" transform="translate(0.000000, 10.000000)">
                            <path d="M92.9899967,4.8183594 C93.2675925,4.88525171 93.4842939,4.92602596 93.6940413,4.98991188 C95.2248592,5.45646698 96.7034282,6.04365373 98.0859569,6.86120558 C98.3541555,7.01979297 98.4430538,7.2321197 98.4781996,7.51378144 C98.518608,7.83584163 98.5932224,8.15320432 98.639645,8.47451291 C98.6574998,8.59871465 98.6390812,8.72817758 98.6372017,8.85500992 C98.5165406,8.81968476 98.3804679,8.80953818 98.2780374,8.74508856 C96.3119373,7.50814445 94.2501727,6.51734902 91.9316743,6.11580723 C90.9173313,5.94012096 89.9270453,5.85425077 88.9198442,6.13591251 C88.1710684,6.34523284 87.4249239,7.05530603 87.4831871,7.95760067 C87.5363757,8.78229271 87.8827597,9.4904869 88.3233045,10.1642954 C88.4373875,10.3388543 88.5426371,10.2347578 88.6510818,10.1381774 C89.2831432,9.5748539 89.8881405,8.97507786 90.5609862,8.46493002 C91.3028079,7.90217024 92.1047723,7.41738886 92.8898216,6.91287801 C92.9869895,6.85049529 93.1531336,6.83414801 93.2660889,6.86778207 C93.6151041,6.97187853 93.9575412,7.10134147 94.2949038,7.23982359 C94.4542818,7.30521271 94.5963687,7.41306717 94.7465374,7.50175585 C94.6021951,7.6186295 94.4727005,7.76368812 94.3110671,7.84786721 C92.4353689,8.82607336 90.724311,10.0192368 89.3100195,11.6113115 C88.5309845,12.4884276 87.8568232,13.4066937 87.5508475,14.5799398 C87.3238091,15.4508552 87.7833364,16.4908803 88.6146203,16.7719784 C89.0732079,16.9271836 89.5584837,17.0102353 90.0369935,17.0976086 C90.2416664,17.1350007 90.4602473,17.1092584 90.6714983,17.0972328 C90.8539936,17.0861468 90.9652574,16.9895663 90.9207143,16.7922715 C90.8051277,16.2794931 90.6649202,15.7716 90.5664366,15.2556273 C90.4435201,14.6088763 90.3164688,13.959119 90.2583936,13.304852 C90.205017,12.7022575 90.2307656,12.0913954 90.2450494,11.4848549 C90.2478686,11.3589621 90.3224831,11.2043206 90.4151403,11.1167593 C90.7085236,10.8396072 91.0208894,10.581245 91.33739,10.3296472 C91.4332423,10.2535478 91.5653681,10.2234839 91.6805788,10.1719993 C91.707831,10.2886851 91.7548174,10.404995 91.7591402,10.5228082 C91.8019918,11.6263435 91.8053748,12.7328851 91.8865674,13.8336019 C91.9373127,14.5252609 92.0880452,15.2118467 92.2184795,15.8956139 C92.4116877,16.9129032 92.7819408,17.8719436 93.279621,18.7749898 C93.6057069,19.3674377 94.0105419,19.9076495 94.6191102,20.2569552 C95.1421631,20.5568432 95.6870177,20.5619165 96.2281135,20.3527841 C96.9663643,20.0668006 97.3642453,19.4279415 97.74991,18.7894581 C97.8566631,18.6128323 97.9322173,18.4179803 98.030137,18.2139211 C97.6948419,18.118468 97.4018345,18.034101 97.1082633,17.9508614 C95.6571344,17.5389852 94.294152,16.9247409 92.9815391,16.1866706 C92.6894715,16.0226341 92.6003852,15.7858804 92.5539626,15.490502 C92.5024655,15.16055 92.4254077,14.8351076 92.3731588,14.5051557 C92.3562437,14.3989923 92.3821802,14.2862525 92.3885704,14.1763311 C92.4926923,14.1960606 92.611474,14.1902357 92.698117,14.240217 C93.2149677,14.538226 93.7139636,14.8683659 94.2385201,15.1509671 C95.4509579,15.8042946 96.7015487,16.3760736 98.0551338,16.6699488 C98.8570982,16.843944 99.6663925,17.0295889 100.480949,17.0835162 C101.051177,17.1218477 101.651287,17.0049741 102.208922,16.8512721 C102.94191,16.6487161 103.573408,15.9782898 103.550103,15.1404448 C103.526234,14.2864404 103.159176,13.5677238 102.718631,12.871931 C102.611314,12.7028212 102.507944,12.7663313 102.392357,12.8741858 C101.963277,13.2749759 101.539835,13.68347 101.094028,14.0650944 C100.184935,14.843751 99.2153227,15.5401075 98.1560607,16.1023036 C98.0397223,16.1639347 97.8600462,16.1682564 97.7296118,16.1304886 C97.3428195,16.0188761 96.9626053,15.8824609 96.5876536,15.7353354 C96.47545,15.6911789 96.3899347,15.5803181 96.2918271,15.5000849 C96.3811013,15.4215428 96.4609782,15.3264655 96.5613412,15.2665255 C97.3289116,14.8071106 98.1254255,14.3918521 98.8634884,13.8899719 C99.52938,13.4371334 100.164449,12.926234 100.756666,12.3801973 C101.958766,11.2723403 103.061444,10.0912024 103.480375,8.42584687 C103.700271,7.55324039 103.298819,6.57710114 102.457011,6.26406014 C102.084502,6.12576592 101.68399,6.05023022 101.28968,5.9852169 C100.979945,5.93429607 100.660249,5.92959857 100.344877,5.93147757 C100.160314,5.93241707 100.067845,6.05473981 100.113891,6.24808866 C100.229102,6.73155474 100.364047,7.21107493 100.458208,7.6986748 C100.583004,8.34504997 100.714566,8.99405574 100.772641,9.6483227 C100.828085,10.270083 100.801021,10.9001109 100.791623,11.5261929 C100.789744,11.6470124 100.735804,11.8010902 100.650476,11.8803839 C100.319504,12.1883516 99.9695489,12.4760262 99.6188422,12.7614459 C99.5511817,12.8161247 99.4487513,12.8275866 99.3624842,12.8591538 C99.3316611,12.7732836 99.2769689,12.6885408 99.2737739,12.6013553 C99.2288548,11.4113861 99.1995353,10.2206654 99.1478502,9.03088409 C99.1316869,8.65940627 99.0909027,8.28304305 99.0072668,7.92152392 C98.8435661,7.21389342 98.6710319,6.50551133 98.4485042,5.81479182 C98.1460995,4.87510512 97.7123208,3.99573425 97.0389113,3.2554092 C96.479021,2.64041329 95.7591889,2.35349036 94.9788383,2.60320914 C93.9357395,2.93691911 93.4559141,3.85875533 92.9899967,4.8183594 M99.5310715,4.54252255 C100.851766,4.45496126 102.139006,4.45947086 103.343738,5.07690947 C104.12766,5.47882705 104.740927,6.0633832 104.900493,6.93523808 C105.008374,7.52561912 104.971912,8.1672968 104.873241,8.76500593 C104.718749,9.69943144 104.232158,10.5089036 103.68298,11.2715887 C103.55311,11.4517846 103.569649,11.5936489 103.692754,11.7650135 C104.161114,12.4168377 104.579294,13.1032356 104.782651,13.884147 C105.059119,14.9448411 105.173578,16.0107964 104.495282,16.986372 C104.035379,17.6475912 103.364412,18.0226392 102.617516,18.2608961 C101.687185,18.5577777 100.724527,18.5453763 99.7624327,18.5034746 C99.6964638,18.5004682 99.6312466,18.476605 99.5333269,18.4557481 C99.4105983,18.6975751 99.290689,18.9463544 99.1596908,19.1893088 C98.6372017,20.1594352 97.9904805,21.0111848 97.0306417,21.6075787 C96.0692993,22.2045362 94.6288833,22.105513 93.688215,21.411975 C92.7392771,20.7120484 92.1542021,19.7541354 91.6409223,18.7321486 C91.5982586,18.6462785 91.5535275,18.5619115 91.5283428,18.5134333 C90.9237214,18.5134333 90.3440968,18.5592809 89.7742454,18.5034746 C88.6702523,18.3956202 87.6023447,18.137258 86.8050789,17.2851326 C86.3498744,16.798848 86.1006584,16.2255659 86.0551755,15.5256393 C85.9632701,14.1205249 86.510568,12.9553585 87.2815213,11.857836 C87.4596939,11.6037955 87.4724742,11.4219085 87.2832128,11.1693712 C86.7111061,10.406874 86.3072107,9.55437282 86.0976512,8.62502061 C85.7054085,6.88675994 86.5130113,5.45477588 88.1930581,4.84598066 C89.2196176,4.47375124 90.2766243,4.45514916 91.347727,4.53744926 C91.4309869,4.54383785 91.5651802,4.44274778 91.6063403,4.35819289 C91.9826076,3.58310638 92.4184537,2.85142472 93.009731,2.21632354 C93.8522916,1.311962 94.872461,0.824550021 96.1082041,1.05810942 C96.9932405,1.22515231 97.7241614,1.75108373 98.2536045,2.4776921 C98.6873832,3.07314644 99.0335792,3.73211089 99.4190559,4.36289038 C99.4587124,4.4277158 99.4993087,4.49178962 99.5310715,4.54252255" id="Fill-1" fill="#1570E9"></path>
                            <path d="M96.9997838,11.4718256 C97.0144397,12.2203847 96.2816438,12.9677706 95.5023398,12.9992539 C94.783809,13.027804 93.9966885,12.2319221 94.0000105,11.479843 C94.0031371,10.7590517 94.7347605,10.0288741 95.4824077,10.0007151 C96.197812,9.97333836 96.9851279,10.7367592 96.9997838,11.4718256" id="Fill-3" fill="#1570E9"></path>
                            <path d="M117.314407,4.10299697 L117.171586,6.48529276 L120.628664,6.48529276 L120.428714,9.76754228 L117.0002,9.76754228 L116.543171,18 L113,18 L113.8,3.75896777 C113.914457,1.56191847 115.828864,0 118.342921,0 L121,0 L120.80005,3.28243459 L118.257428,3.28243459 C117.743071,3.28243459 117.342971,3.67939135 117.314407,4.10299697" id="Fill-5" fill="#FFFFFF"></path>
                            <path d="M128.225903,15.9536538 C130.173056,15.9536538 131.187953,14.5496566 131.27021,13.1456594 C131.407307,11.1325411 131.489565,9.1192376 131.626661,7 L135,7 L134.369356,18.4436608 L130.995826,18.4436608 L131.105695,16.457026 C130.365182,18.4966278 128.472677,19 127.649906,19 C124.468311,19 122,15.7153021 122,12.721923 L122.329223,7 L125.675143,7 L125.373531,12.8543406 C125.373531,14.6820742 126.114043,15.9536538 128.225903,15.9536538" id="Fill-7" fill="#FFFFFF"></path>
                            <path d="M143.688064,8.99337912 C141.754091,9.01986264 140.733493,10.4503434 140.652747,11.8543406 C140.518482,13.8676441 140.437923,15.8807624 140.303659,18 L137,18 L137.617805,6.55633922 L140.921464,6.55633922 L140.814052,8.54297399 C141.539268,6.50337217 143.392494,6 144.19827,6 C147.42137,6 150,9.12579674 150,12.2782622 L149.677577,18 L146.400771,18 L146.696341,12.0399105 C146.696341,10.7151786 146.024643,9.12579674 143.688064,8.99337912" id="Fill-9" fill="#FFFFFF"></path>
                            <path d="M162.143758,12.3132664 C162.143758,10.5465184 160.942089,9.18739373 159.125813,9.18739373 C157.337278,9.18739373 155.912311,10.5465184 155.912311,12.3132664 C155.912311,14.0258547 157.337278,15.4121542 159.125813,15.4121542 C160.886216,15.4121542 162.143758,14.0258547 162.143758,12.3132664 L162.143758,12.3132664 Z M166,0 L164.965951,18.4563121 L161.528955,18.4563121 L161.612765,16.3632754 C160.802406,18.4019624 159.125813,19 158.091959,19 C154.710642,19 152,15.8197776 152,12.5308556 C152,9.35044308 154.850325,6.14304575 158.455137,6.14304575 C159.48899,6.14304575 161.612765,6.7139085 162.115626,8.48065652 L162.563004,0 L166,0 Z" id="Fill-11" fill="#FFFFFF"></path>
                            <path d="M9.66331218,12.238778 C9.66331218,10.4523996 8.51556174,9.07817373 6.78031238,9.07817373 C5.07193718,9.07817373 3.71049987,10.4523996 3.71049987,12.238778 C3.71049987,13.9703948 5.07193718,15.3720975 6.78031238,15.3720975 C8.46200006,15.3720975 9.66331218,13.9703948 9.66331218,12.238778 M9.71668724,8.36358396 L9.71668724,6.57720561 L13,6.57720561 L12.3861868,18.4500791 L9.10268742,18.4500791 L9.18275001,16.3337866 C8.408625,18.3951254 6.80699991,19 5.81937466,19 C2.58925034,19 0,15.7840578 0,12.4587848 C0,9.24303472 2.72287462,6 6.16631256,6 C7.15412444,6 9.18275001,6.57720561 9.71668724,8.36358396" id="Fill-13" fill="#FFFFFF"></path>
                            <polygon id="Fill-15" fill="#FFFFFF" points="22 6.56468411 21.8340334 9.82046985 18.8458605 9.82046985 18.4030894 18 15 18 15.9959931 0 19.3716149 0 19.0118271 6.56468411"></polygon>
                            <path d="M31.7611211,12.5137384 C31.7611211,10.6724064 30.75215,9.21555789 29,9.21555789 C27.2213079,9.21555789 26.2388789,10.6724064 26.2388789,12.5137384 C26.2388789,14.3275936 27.2213079,15.8117268 29,15.8117268 C30.75215,15.8117268 31.7611211,14.3275936 31.7611211,12.5137384 M35,12.5137384 C35,16.0866873 32.4514013,19 29,19 C25.5485987,19 23,16.0866873 23,12.5137384 C23,8.91331274 25.5485987,6 29,6 C32.4514013,6 35,8.91331274 35,12.5137384" id="Fill-17" fill="#FFFFFF"></path>
                            <path d="M53.5699668,8.99337912 C51.508975,9.09931322 50.3000058,10.3708928 50.3000058,12.3577128 C50.3000058,12.9935026 50.0525639,16.8345397 49.9701473,18 L46.5902974,18 L46.9199639,12.0397253 C46.9199639,10.5562775 46.1780222,9.12579674 43.924725,8.99337912 C41.9188697,9.01986264 40.8195972,10.4503434 40.7371806,11.8543406 C40.5998196,13.8676441 40.517403,15.8807624 40.3800419,18 L37,18 L37.6320529,6.55633922 L41.0119027,6.55633922 L40.902206,8.54297399 C41.6439555,6.50337217 43.5401141,6 44.3644724,6 C46.4529364,6 48.4862639,7.32454665 49.5031198,9.17876379 C50.5197835,6.76820742 53.1576916,6 53.9545777,6 C57.3071475,6 60,8.96689559 60,12.2782622 L59.6703335,18 L56.3179559,18 L56.6201502,11.8808241 C56.6201502,10.7151786 55.9880973,9.20543252 53.5699668,8.99337912" id="Fill-19" fill="#FFFFFF"></path>
                            <path d="M65.8481349,3.30889837 L62.7595026,3.30889837 L62.9113678,0 L66,0 L65.8481349,3.30889837 Z M65.1139431,18 L62,18 L62.5823267,6.56468411 L65.6709589,6.56468411 L65.1139431,18 Z" id="Fill-21" fill="#FFFFFF"></path>
                            <path d="M77,7 L76.8067982,10.4443294 L73.9631997,10.4443294 C72.5552005,10.4443294 71.3680034,11.5833118 71.3680034,13 C71.3680034,14.3611471 72.389599,15.4443941 73.6871971,15.583247 L76.5306026,15.583247 L76.3650011,19 L73.4938023,19 C70.4294017,18.7776411 68,16.1666235 68,13 C68,9.69452356 70.677997,7 73.9631997,7 L77,7 Z" id="Fill-23" fill="#FFFFFF"></path>
                        </g>
                    </g>
                </g>
            </g>
        </g>
    </g>
</svg>